<svg xmlns="http://www.w3.org/2000/svg" width="20" height="20" viewBox="0 0 20 20">
  <g id="my_calendar_icon" transform="translate(0.129 0.126)">
    <path id="Union_13" data-name="Union 13" d="M3.126,20A3.13,3.13,0,0,1,0,16.873V4.687A3.129,3.129,0,0,1,3.126,1.562H4.1V.781a.782.782,0,0,1,1.563,0v.781H9.183V.781a.781.781,0,1,1,1.563,0v.781H14.3V.781a.782.782,0,0,1,1.563,0v.781h1.016A3.125,3.125,0,0,1,20,4.687V9.138a.781.781,0,1,1-1.562,0V4.687a1.564,1.564,0,0,0-1.56-1.563H15.862v.781a.782.782,0,0,1-1.563,0V3.124H10.742v.781a.781.781,0,1,1-1.562,0V3.124H5.665v.781a.782.782,0,0,1-1.563,0V3.124H3.126A1.563,1.563,0,0,0,1.565,4.687V16.875a1.562,1.562,0,0,0,1.561,1.563H9.1A.781.781,0,1,1,9.1,20ZM4,16a1,1,0,1,1,1,1A1,1,0,0,1,4,16Zm0-4a1,1,0,1,1,1,1A1,1,0,0,1,4,12ZM14,8a1,1,0,1,1,1,1A1,1,0,0,1,14,8ZM9,8a1,1,0,1,1,1,1A1,1,0,0,1,9,8ZM4,8A1,1,0,1,1,5,9,1,1,0,0,1,4,8Z" transform="translate(-0.129 -0.126)" fill="#fff"/>
    <path id="Union_14" data-name="Union 14" d="M0,4.674A4.674,4.674,0,1,1,4.674,9.348,4.673,4.673,0,0,1,0,4.674Zm1.545,0A3.128,3.128,0,1,0,4.674,1.545,3.13,3.13,0,0,0,1.545,4.674Zm3.129.77A.773.773,0,0,1,3.9,4.672V3.091a.773.773,0,0,1,1.545,0V3.9H5.8v0a.773.773,0,0,1,0,1.545Z" transform="translate(10.411 10.412)" fill="#fff"/>
  </g>
</svg>
