<svg xmlns="http://www.w3.org/2000/svg" width="17.978" height="17.472" viewBox="0 0 17.978 17.472">
  <g id="verified_icon" transform="translate(-833 -453.998)">
    <path id="Union_15" data-name="Union 15" d="M-6166.787-8262.343c-.729-.238-1.027-.985-1.291-1.644a2.853,2.853,0,0,0-.4-.794,2.752,2.752,0,0,0-.853-.136,2.482,2.482,0,0,1-1.958-.729,2.44,2.44,0,0,1-.1-2.126,2.729,2.729,0,0,0,.141-.856,2.612,2.612,0,0,0-.6-.608,2.462,2.462,0,0,1-1.15-1.772,2.5,2.5,0,0,1,1.173-1.791,2.75,2.75,0,0,0,.6-.591,2.922,2.922,0,0,0-.143-.864,2.51,2.51,0,0,1,.067-2.1,2.38,2.38,0,0,1,1.951-.748,2.743,2.743,0,0,0,.863-.135,2.8,2.8,0,0,0,.4-.792c.262-.654.558-1.395,1.285-1.645a2.353,2.353,0,0,1,2,.557,2.584,2.584,0,0,0,.8.41,2.619,2.619,0,0,0,.805-.412,2.35,2.35,0,0,1,1.971-.559c.729.239,1.027.984,1.29,1.643a2.872,2.872,0,0,0,.4.795,2.7,2.7,0,0,0,.854.135,2.446,2.446,0,0,1,1.955.738,2.475,2.475,0,0,1,.09,2.105,2.8,2.8,0,0,0-.14.867,2.648,2.648,0,0,0,.6.607,2.466,2.466,0,0,1,1.156,1.775,2.493,2.493,0,0,1-1.173,1.791,2.806,2.806,0,0,0-.6.591,2.9,2.9,0,0,0,.14.855,2.471,2.471,0,0,1-.088,2.11,2.391,2.391,0,0,1-1.941.732,2.667,2.667,0,0,0-.864.139,2.832,2.832,0,0,0-.4.791c-.262.654-.558,1.4-1.284,1.646a2.348,2.348,0,0,1-1.991-.553,2.569,2.569,0,0,0-.789-.407,2.637,2.637,0,0,0-.806.411,3.016,3.016,0,0,1-1.538.627A1.336,1.336,0,0,1-6166.787-8262.343Zm.076-15.118a3.126,3.126,0,0,1-.9,1.441,3.009,3.009,0,0,1-1.645.424,2.775,2.775,0,0,0-.852.13,5.591,5.591,0,0,0,.175.839,3.1,3.1,0,0,1,.113,1.714,3.022,3.022,0,0,1-1.062,1.275c-.209.174-.6.5-.632.641a2.989,2.989,0,0,0,.615.607,3.058,3.058,0,0,1,1.066,1.3,3.114,3.114,0,0,1-.118,1.7,2.717,2.717,0,0,0-.141.859,3.734,3.734,0,0,0,.86.114,3.015,3.015,0,0,1,1.623.414,3.132,3.132,0,0,1,.91,1.451,2.838,2.838,0,0,0,.4.788,6.027,6.027,0,0,0,.693-.41,3.106,3.106,0,0,1,1.6-.646,3.069,3.069,0,0,1,1.588.643,2.675,2.675,0,0,0,.74.393,4.594,4.594,0,0,0,.358-.78,3.131,3.131,0,0,1,.9-1.441,3.066,3.066,0,0,1,1.643-.426,2.664,2.664,0,0,0,.858-.136,5.029,5.029,0,0,0-.17-.834,3.089,3.089,0,0,1-.108-1.7,3.009,3.009,0,0,1,1.061-1.273,2.892,2.892,0,0,0,.63-.631,2.812,2.812,0,0,0-.614-.616,3.048,3.048,0,0,1-1.07-1.3,3.149,3.149,0,0,1,.113-1.705,2.729,2.729,0,0,0,.139-.862,3.99,3.99,0,0,0-.844-.105,3.02,3.02,0,0,1-1.625-.416,3.12,3.12,0,0,1-.911-1.451,2.88,2.88,0,0,0-.4-.788,6.266,6.266,0,0,0-.693.412,3.108,3.108,0,0,1-1.6.646,3.085,3.085,0,0,1-1.594-.646,2.639,2.639,0,0,0-.75-.4A4.612,4.612,0,0,0-6166.711-8277.461ZM-6156.5-8271h0Zm-9.026,2.905-1.983-2.008a.759.759,0,0,1,0-1.063.736.736,0,0,1,1.05,0l1.409,1.426,3.312-4.01a.736.736,0,0,1,1.047-.094.76.76,0,0,1,.094,1.06l-3.834,4.641a.73.73,0,0,1-.537.268H-6165A.734.734,0,0,1-6165.523-8268.092Z" transform="translate(7006 8733.742)" fill="#21d59f"/>
  </g>
</svg>
