<svg xmlns="http://www.w3.org/2000/svg" width="17.977" height="17.438" viewBox="0 0 17.977 17.438">
  <g id="verified_icon2" transform="translate(-845.999 -454.029)">
    <path id="Union_15" data-name="Union 15" d="M-6166.79-8262.34c-.729-.238-1.027-.985-1.291-1.644a2.835,2.835,0,0,0-.4-.794,2.754,2.754,0,0,0-.854-.136,2.485,2.485,0,0,1-1.958-.729,2.439,2.439,0,0,1-.1-2.126,2.72,2.72,0,0,0,.142-.856,2.584,2.584,0,0,0-.6-.608A2.462,2.462,0,0,1-6173-8271a2.5,2.5,0,0,1,1.173-1.792,2.729,2.729,0,0,0,.6-.59,2.94,2.94,0,0,0-.143-.864,2.511,2.511,0,0,1,.067-2.1,2.38,2.38,0,0,1,1.951-.749,2.725,2.725,0,0,0,.863-.133,2.829,2.829,0,0,0,.4-.793c.262-.654.558-1.395,1.285-1.645a2.35,2.35,0,0,1,2,.556,2.6,2.6,0,0,0,.8.41,2.606,2.606,0,0,0,.8-.411,2.351,2.351,0,0,1,1.972-.56c.729.24,1.026.985,1.29,1.644a2.883,2.883,0,0,0,.4.795,2.723,2.723,0,0,0,.854.135,2.442,2.442,0,0,1,1.956.738,2.477,2.477,0,0,1,.089,2.105,2.766,2.766,0,0,0-.141.867,2.678,2.678,0,0,0,.6.607,2.467,2.467,0,0,1,1.155,1.775,2.491,2.491,0,0,1-1.173,1.791,2.808,2.808,0,0,0-.6.591,2.9,2.9,0,0,0,.14.856,2.473,2.473,0,0,1-.087,2.109,2.4,2.4,0,0,1-1.941.732,2.624,2.624,0,0,0-.864.138,2.838,2.838,0,0,0-.4.792c-.262.654-.558,1.4-1.284,1.646a2.353,2.353,0,0,1-1.991-.553,2.6,2.6,0,0,0-.789-.407,2.648,2.648,0,0,0-.806.412,3.014,3.014,0,0,1-1.539.626A1.322,1.322,0,0,1-6166.79-8262.34Z" transform="translate(7019 8733.74)" fill="#21d59f"/>
    <path id="Union_15-2" data-name="Union 15" d="M-6165.531-8268.105l-1.978-2.006a.754.754,0,0,1,0-1.059.723.723,0,0,1,.523-.221.727.727,0,0,1,.524.221l1.407,1.42,3.3-4a.734.734,0,0,1,.5-.268.726.726,0,0,1,.542.174.757.757,0,0,1,.094,1.058l-3.827,4.63a.718.718,0,0,1-.536.268h-.033a.737.737,0,0,1-.519-.213Z" transform="translate(7018.994 8733.781)" fill="#fff"/>
  </g>
</svg>
